{"records": [{
    "jsonSchemaLocation": "/helloWorld/Service Descriptors/helloworld.helloWorldProcess-hello_world.json",
    "conversionType": "linked",
    "xsdSchemaTargetNamespace": "/T1496658054953Converted/JsonSchema"
}]}